\relax 
\providecommand\hyper@newdestlabel[2]{}
\providecommand\HyperFirstAtBeginDocument{\AtBeginDocument}
\HyperFirstAtBeginDocument{\ifx\hyper@anchor\@undefined
\global\let\oldcontentsline\contentsline
\gdef\contentsline#1#2#3#4{\oldcontentsline{#1}{#2}{#3}}
\global\let\oldnewlabel\newlabel
\gdef\newlabel#1#2{\newlabelxx{#1}#2}
\gdef\newlabelxx#1#2#3#4#5#6{\oldnewlabel{#1}{{#2}{#3}}}
\AtEndDocument{\ifx\hyper@anchor\@undefined
\let\contentsline\oldcontentsline
\let\newlabel\oldnewlabel
\fi}
\fi}
\global\let\hyper@last\relax 
\gdef\HyperFirstAtBeginDocument#1{#1}
\providecommand\HyField@AuxAddToFields[1]{}
\providecommand\HyField@AuxAddToCoFields[2]{}
\citation{metody}
\citation{opt-newton}
\@writefile{toc}{\contentsline {section}{\numberline {1\relax .\kern .5em }Teoria}{1}{section.1}}
\citation{opt-quasi}
\citation{metody}
\citation{metody}
\citation{opt-newton}
\@writefile{toc}{\contentsline {section}{\numberline {2\relax .\kern .5em }Wyniki}{2}{section.2}}
\@writefile{lot}{\contentsline {table}{\numberline {1}{\ignorespaces Zestawienie liczby iteracji dla r\IeC {\'o}\IeC {\.z}nych dok\IeC {\l }adno\IeC {\'s}ci $\epsilon $}}{2}{table.1}}
\bibcite{wikamp}{1}
\bibcite{metody}{2}
\bibcite{opt-newton}{3}
\bibcite{opt-quasi}{4}
\@writefile{lot}{\contentsline {table}{\numberline {2}{\ignorespaces Zestawienie ilo\IeC {\'s}ci iteracji i znalezionego minimum funkcji}}{3}{table.2}}
\@writefile{lot}{\contentsline {table}{\numberline {3}{\ignorespaces Zestawienie ilo\IeC {\'s}ci iteracji wzgl\IeC {\k e}dem punktu startowego}}{3}{table.3}}
\@writefile{toc}{\contentsline {section}{\numberline {3\relax .\kern .5em }Wnioski}{3}{section.3}}
\@writefile{toc}{\contentsline {section}{Literatura}{3}{section*.1}}
