\relax 
\providecommand\hyper@newdestlabel[2]{}
\providecommand\HyperFirstAtBeginDocument{\AtBeginDocument}
\HyperFirstAtBeginDocument{\ifx\hyper@anchor\@undefined
\global\let\oldcontentsline\contentsline
\gdef\contentsline#1#2#3#4{\oldcontentsline{#1}{#2}{#3}}
\global\let\oldnewlabel\newlabel
\gdef\newlabel#1#2{\newlabelxx{#1}#2}
\gdef\newlabelxx#1#2#3#4#5#6{\oldnewlabel{#1}{{#2}{#3}}}
\AtEndDocument{\ifx\hyper@anchor\@undefined
\let\contentsline\oldcontentsline
\let\newlabel\oldnewlabel
\fi}
\fi}
\global\let\hyper@last\relax 
\gdef\HyperFirstAtBeginDocument#1{#1}
\providecommand\HyField@AuxAddToFields[1]{}
\providecommand\HyField@AuxAddToCoFields[2]{}
\citation{wikamp}
\citation{wikamp}
\@writefile{toc}{\contentsline {section}{\numberline {1\relax .\kern .5em }Teoria}{1}{section.1}}
\@writefile{toc}{\contentsline {subsection}{\numberline {1.1\relax .\kern .5em }Postaci zadania}{1}{subsection.1.1}}
\citation{wikamp}
\@writefile{toc}{\contentsline {subsection}{\numberline {1.2\relax .\kern .5em }Przekszta\IeC {\l }cenie do postaci standardowej}{2}{subsection.1.2}}
\@writefile{toc}{\contentsline {subsection}{\numberline {1.3\relax .\kern .5em }Metoda simpleksu}{2}{subsection.1.3}}
\@writefile{toc}{\contentsline {subsection}{\numberline {1.4\relax .\kern .5em }Kryterium optymalno\IeC {\'s}ci}{2}{subsection.1.4}}
\@writefile{toc}{\contentsline {subsection}{\numberline {1.5\relax .\kern .5em }Kryterium wej\IeC {\'s}cia}{2}{subsection.1.5}}
\@writefile{toc}{\contentsline {subsection}{\numberline {1.6\relax .\kern .5em }Kryterium wyj\IeC {\'s}cia}{3}{subsection.1.6}}
\@writefile{toc}{\contentsline {subsection}{\numberline {1.7\relax .\kern .5em }Dwufazowy algorytm simpleks}{3}{subsection.1.7}}
\@writefile{toc}{\contentsline {subsection}{\numberline {1.8\relax .\kern .5em }Rodzaje wynik\IeC {\'o}w}{3}{subsection.1.8}}
\@writefile{toc}{\contentsline {section}{\numberline {2\relax .\kern .5em }Implementacja}{3}{section.2}}
\@writefile{toc}{\contentsline {section}{\numberline {3\relax .\kern .5em }Wyniki}{5}{section.3}}
\@writefile{toc}{\contentsline {subsection}{\numberline {3.1\relax .\kern .5em }Minimalizacja}{5}{subsection.3.1}}
\citation{bland}
\bibcite{wikamp}{1}
\bibcite{bland}{2}
\@writefile{toc}{\contentsline {subsection}{\numberline {3.2\relax .\kern .5em }Maksymalizacja}{7}{subsection.3.2}}
\@writefile{toc}{\contentsline {section}{\numberline {4\relax .\kern .5em }Wnioski}{7}{section.4}}
\@writefile{toc}{\contentsline {section}{Literatura}{7}{section*.1}}
