\relax 
\providecommand\hyper@newdestlabel[2]{}
\providecommand\HyperFirstAtBeginDocument{\AtBeginDocument}
\HyperFirstAtBeginDocument{\ifx\hyper@anchor\@undefined
\global\let\oldcontentsline\contentsline
\gdef\contentsline#1#2#3#4{\oldcontentsline{#1}{#2}{#3}}
\global\let\oldnewlabel\newlabel
\gdef\newlabel#1#2{\newlabelxx{#1}#2}
\gdef\newlabelxx#1#2#3#4#5#6{\oldnewlabel{#1}{{#2}{#3}}}
\AtEndDocument{\ifx\hyper@anchor\@undefined
\let\contentsline\oldcontentsline
\let\newlabel\oldnewlabel
\fi}
\fi}
\global\let\hyper@last\relax 
\gdef\HyperFirstAtBeginDocument#1{#1}
\providecommand\HyField@AuxAddToFields[1]{}
\providecommand\HyField@AuxAddToCoFields[2]{}
\citation{funkcja_unimodalna}
\citation{wikamp}
\@writefile{toc}{\contentsline {section}{\numberline {1\relax .\kern .5em }Teoria}{1}{section.1}}
\citation{wikamp}
\citation{metoda_dychotomii}
\@writefile{toc}{\contentsline {subsection}{\numberline {1.1\relax .\kern .5em }Metoda bisekcji}{2}{subsection.1.1}}
\@writefile{toc}{\contentsline {subsection}{\numberline {1.2\relax .\kern .5em }Metoda dychotomii}{2}{subsection.1.2}}
\@writefile{toc}{\contentsline {section}{\numberline {2\relax .\kern .5em }Wyniki}{3}{section.2}}
\@writefile{lot}{\contentsline {table}{\numberline {1}{\ignorespaces Zestawienie liczby iteracji dla r\IeC {\'o}\IeC {\.z}nych dok\IeC {\l }adno\IeC {\'s}ci $\epsilon $}}{3}{table.1}}
\@writefile{lot}{\contentsline {table}{\numberline {2}{\ignorespaces Zestawienie dok\IeC {\l }adno\IeC {\'s}ci $\epsilon $ dla r\IeC {\'o}\IeC {\.z}nej liczby iteracji}}{3}{table.2}}
\bibcite{wikamp}{1}
\bibcite{funkcja_unimodalna}{2}
\bibcite{metoda_dychotomii}{3}
\@writefile{lot}{\contentsline {table}{\numberline {3}{\ignorespaces Zestawienie ilo\IeC {\'s}ci iteracji i znalezionego minimum dla $\epsilon = 10^{-3}$ i r\IeC {\'o}\IeC {\.z}nej warto\IeC {\'s}ci otoczenia d punktu \IeC {\'s}rodkowego d w metodzie dychotomii}}{4}{table.3}}
\@writefile{toc}{\contentsline {section}{\numberline {3\relax .\kern .5em }Wnioski}{4}{section.3}}
\@writefile{toc}{\contentsline {section}{Literatura}{4}{section*.1}}
