\relax 
\providecommand\hyper@newdestlabel[2]{}
\providecommand\HyperFirstAtBeginDocument{\AtBeginDocument}
\HyperFirstAtBeginDocument{\ifx\hyper@anchor\@undefined
\global\let\oldcontentsline\contentsline
\gdef\contentsline#1#2#3#4{\oldcontentsline{#1}{#2}{#3}}
\global\let\oldnewlabel\newlabel
\gdef\newlabel#1#2{\newlabelxx{#1}#2}
\gdef\newlabelxx#1#2#3#4#5#6{\oldnewlabel{#1}{{#2}{#3}}}
\AtEndDocument{\ifx\hyper@anchor\@undefined
\let\contentsline\oldcontentsline
\let\newlabel\oldnewlabel
\fi}
\fi}
\global\let\hyper@last\relax 
\gdef\HyperFirstAtBeginDocument#1{#1}
\providecommand\HyField@AuxAddToFields[1]{}
\providecommand\HyField@AuxAddToCoFields[2]{}
\citation{metody}
\@writefile{toc}{\contentsline {section}{\numberline {1\relax .\kern .5em }Teoria}{1}{section.1}}
\@writefile{toc}{\contentsline {section}{\numberline {2\relax .\kern .5em }Wyniki}{2}{section.2}}
\@writefile{lot}{\contentsline {table}{\numberline {1}{\ignorespaces Zestawienie wp\IeC {\l }ywu wsp\IeC {\'o}\IeC {\l }czynnika zmniejszenia bariery $\varphi $ na ilo\IeC {\'s}\IeC {\'c} iteracji i dok\IeC {\l }adno\IeC {\'s}\IeC {\'c} rozwi\IeC {\k a}zania}}{2}{table.1}}
\bibcite{wikamp}{1}
\bibcite{metody}{2}
\@writefile{lot}{\contentsline {table}{\numberline {2}{\ignorespaces Zestawienie wp\IeC {\l }ywu wsp\IeC {\'o}\IeC {\l }czynnika zmniejszenia bariery $\varphi $ na ilo\IeC {\'s}\IeC {\'c} iteracji i dok\IeC {\l }adno\IeC {\'s}\IeC {\'c} rozwi\IeC {\k a}zania}}{3}{table.2}}
\@writefile{toc}{\contentsline {section}{\numberline {3\relax .\kern .5em }Wnioski}{3}{section.3}}
\@writefile{toc}{\contentsline {section}{Literatura}{3}{section*.1}}
